EPINOR Annual Meeting 2021
…
---

# Joint Posterior Density

Let's do this carefully. First select columns.

```r
df %>% 
  as_tibble() %>% 
 select(b_LWT, b_SmokerTRUE)
```

```
## # A tibble: 4,000 × 2
##       b_LWT b_SmokerTRUE
##       <dbl>        <dbl>
##  1 -0.0270         0.444
##  2 -0.00754        0.783
##  3 -0.0413         0.567
##  4 -0.0265         0.823
##  5 -0.0281         0.372
##  6 -0.0455         0.164
##  7 -0.0175         1.13 
##  8 -0.0282         0.458
##  9 -0.0481         0.545
## 10 -0.0511         0.445
## # … with 3,990 more rows
```
---

# Joint Posterior Density

Label the ones that meet our criteria.

```r
df %>% 
  as_tibble() %>% 
  select(b_LWT, b_SmokerTRUE) %>% 
  mutate(meets_criteria = b_LWT > 0 & b_SmokerTRUE < 0)
```

```
## # A tibble: 4,000 × 3
##       b_LWT b_SmokerTRUE meets_criteria
##       <dbl>        <dbl> <lgl>         
##  1 -0.0270         0.444 FALSE         
##  2 -0.00754        0.783 FALSE         
##  3 -0.0413         0.567 FALSE         
##  4 -0.0265         0.823 FALSE         
##  5 -0.0281         0.372 FALSE         
##  6 -0.0455         0.164 FALSE         
##  7 -0.0175         1.13  FALSE         
##  8 -0.0282         0.458 FALSE         
##  9 -0.0481         0.545 FALSE         
## 10 -0.0511         0.445 FALSE         
## # … with 3,990 more rows
```
…
# Joint Posterior Density

What's the probability that the odds ratio associated with a 1 kg difference in mother's weight is between 0.99 and 1.01?

```r
df %>% 
  as_tibble() %>% 
  select(b_LWT) %>% 
  mutate(
    odds_ratio = exp(b_LWT),
    meets_criteria = between(odds_ratio, .99, 1.01))
```

```
## # A tibble: 4,000 × 3
##       b_LWT odds_ratio meets_criteria
##       <dbl>      <dbl> <lgl>         
##  1 -0.0270       0.973 FALSE         
##  2 -0.00754      0.992 TRUE          
##  3 -0.0413       0.960 FALSE         
##  4 -0.0265       0.974 FALSE         
##  5 -0.0281       0.972 FALSE         
##  6 -0.0455       0.955 FALSE         
##  7 -0.0175       0.983 FALSE         
##  8 -0.0282       0.972 FALSE         
##  9 -0.0481       0.953 FALSE         
## 10 -0.0511       0.950 FALSE         
## # … with 3,990 more rows
```
…
